waveforms/simulation_waves.vcd
$date
	Mon Nov 10 00:59:42 2025
$end
$version
	Icarus Verilog
$end
$timescale
	1ps
$end
$scope module tb_traffic_light_controller $end
$var wire 1 ! was_in_ns_phase_status $end
$var wire 1 " ped_light_walk $end
$var wire 1 # ped_light_dont_walk $end
$var wire 2 $ ped_light [1:0] $end
$var wire 1 % ped_latch_status $end
$var wire 1 & ns_light_y $end
$var wire 1 ' ns_light_r $end
$var wire 1 ( ns_light_g $end
$var wire 3 ) ns_light [2:0] $end
$var wire 1 * ew_light_y $end
$var wire 1 + ew_light_r $end
$var wire 1 , ew_light_g $end
$var wire 3 - ew_light [2:0] $end
$var wire 3 . current_state [2:0] $end
$var parameter 32 / CLK_PERIOD $end
$var parameter 3 0 S_EW_GREEN $end
$var parameter 3 1 S_EW_YELLOW $end
$var parameter 3 2 S_NS_GREEN $end
$var parameter 3 3 S_NS_YELLOW $end
$var parameter 3 4 S_PED_GREEN $end
$var reg 1 5 clk $end
$var reg 64 6 current_state_string [63:0] $end
$var reg 1 7 pedestrian_request $end
$var reg 1 8 reset $end
$scope function state_to_string $end
$var reg 3 9 state [2:0] $end
$upscope $end
$scope module dut $end
$var wire 1 5 clk $end
$var wire 3 : current_state [2:0] $end
$var wire 1 % ped_request_latched_out $end
$var wire 1 7 pedestrian_request $end
$var wire 1 8 reset $end
$var wire 1 ; timer_done $end
$var wire 1 ! was_in_ns_phase_out $end
$var parameter 32 < GREEN_DURATION $end
$var parameter 32 = PED_DURATION $end
$var parameter 3 > S_EW_GREEN $end
$var parameter 3 ? S_EW_YELLOW $end
$var parameter 3 @ S_NS_GREEN $end
$var parameter 3 A S_NS_YELLOW $end
$var parameter 3 B S_PED_GREEN $end
$var parameter 32 C YELLOW_DURATION $end
$var reg 3 D ew_light [2:0] $end
$var reg 3 E next_state [2:0] $end
$var reg 3 F ns_light [2:0] $end
$var reg 2 G ped_light [1:0] $end
$var reg 1 H ped_request_latched $end
$var reg 3 I state_reg [2:0] $end
$var reg 5 J timer_count [4:0] $end
$var reg 1 K was_in_ns_phase $end
$upscope $end
$scope task wait_cycles $end
$var integer 32 L n [31:0] $end
$upscope $end
$upscope $end
$enddefinitions $end
$comment Show the parameter values. $end
$dumpall
b11 C
b100 B
b1 A
b0 @
b11 ?
b10 >
b101 =
b1010 <
b100 4
b1 3
b0 2
b11 1
b10 0
b111011100110101100101000000000 /
$end
#0
$dumpvars
b10 L
0K
b0 J
b0 I
0H
b1 G
b100 F
b0 E
b1 D
0;
b0 :
b0 9
18
07
b10011100101001101011111010001110101001001001110 6
05
b0 .
b1 -
0,
1+
0*
b100 )
1(
0'
0&
0%
b1 $
1#
0"
0!
$end
#500000000000
15
#1000000000000
05
#1500000000000
b1 J
b110100 L
08
15
#2000000000000
05
#2500000000000
b10 J
15
#3000000000000
05
#3500000000000
b11 J
15
#4000000000000
05
#4500000000000
b100 J
15
#5000000000000
05
#5500000000000
b101 J
15
#6000000000000
05
#6500000000000
b110 J
15
#7000000000000
05
#7500000000000
b111 J
15
#8000000000000
05
#8500000000000
b1000 J
15
#9000000000000
05
#9500000000000
b1 E
1;
b1001 J
15
#10000000000000
05
#10500000000000
0;
1&
b10 )
0(
b10 F
b1 E
b10011100101001101011111010110010100010101001100 6
b1 9
b1 .
b1 :
b1 I
b0 J
15
#11000000000000
05
#11500000000000
b1 J
15
#12000000000000
05
#12500000000000
b10 E
1;
b10 J
15
#13000000000000
05
#13500000000000
0;
0+
b100 -
1,
1'
b1 )
0&
b100 D
b1 F
b10 E
b10001010101011101011111010001110101001001001110 6
b10 9
b10 .
b10 :
b10 I
b0 J
15
#14000000000000
05
#14500000000000
b1 J
15
#15000000000000
05
#15500000000000
b10 J
15
#16000000000000
05
#16500000000000
b11 J
15
#17000000000000
05
#17500000000000
b100 J
15
#18000000000000
05
#18500000000000
b101 J
15
#19000000000000
05
#19500000000000
b110 J
15
#20000000000000
05
#20500000000000
b111 J
15
#21000000000000
05
#21500000000000
b1000 J
15
#22000000000000
05
#22500000000000
b11 E
1;
b1001 J
15
#23000000000000
05
#23500000000000
0;
1*
b10 -
0,
b10 D
b11 E
b10001010101011101011111010110010100010101001100 6
b11 9
b11 .
b11 :
b11 I
b0 J
15
#24000000000000
05
#24500000000000
b1 J
15
#25000000000000
05
#25500000000000
b0 E
1;
b10 J
15
#26000000000000
05
#26500000000000
0;
0'
b100 )
1(
1+
b1 -
0*
b100 F
b1 D
b0 E
b10011100101001101011111010001110101001001001110 6
b0 9
b0 .
b0 :
b0 I
b0 J
15
#27000000000000
05
#27500000000000
b1 J
15
#28000000000000
05
#28500000000000
b10 J
15
#29000000000000
05
#29500000000000
b11 J
15
#30000000000000
05
#30500000000000
b100 J
15
#31000000000000
05
#31500000000000
b101 J
15
#32000000000000
05
#32500000000000
b110 J
15
#33000000000000
05
#33500000000000
b111 J
15
#34000000000000
05
#34500000000000
b1000 J
15
#35000000000000
05
#35500000000000
b1 E
1;
b1001 J
15
#36000000000000
05
#36500000000000
0;
1&
b10 )
0(
b10 F
b1 E
b10011100101001101011111010110010100010101001100 6
b1 9
b1 .
b1 :
b1 I
b0 J
15
#37000000000000
05
#37500000000000
b1 J
15
#38000000000000
05
#38500000000000
b10 E
1;
b10 J
15
#39000000000000
05
#39500000000000
0;
0+
b100 -
1,
1'
b1 )
0&
b100 D
b1 F
b10 E
b10001010101011101011111010001110101001001001110 6
b10 9
b10 .
b10 :
b10 I
b0 J
15
#40000000000000
05
#40500000000000
b1 J
15
#41000000000000
05
#41500000000000
b10 J
15
#42000000000000
05
#42500000000000
b11 J
15
#43000000000000
05
#43500000000000
b100 J
15
#44000000000000
05
#44500000000000
b101 J
15
#45000000000000
05
#45500000000000
b110 J
15
#46000000000000
05
#46500000000000
b111 J
15
#47000000000000
05
#47500000000000
b1000 J
15
#48000000000000
05
#48500000000000
b11 E
1;
b1001 J
15
#49000000000000
05
#49500000000000
0;
1*
b10 -
0,
b10 D
b11 E
b10001010101011101011111010110010100010101001100 6
b11 9
b11 .
b11 :
b11 I
b0 J
15
#50000000000000
05
#50500000000000
b1 J
15
#51000000000000
05
#51500000000000
b0 E
1;
b10 J
15
#52000000000000
05
#52500000000000
0;
0'
b100 )
1(
1+
b1 -
0*
b100 F
b1 D
b0 E
b10011100101001101011111010001110101001001001110 6
b0 9
b0 .
b0 :
b0 I
b0 J
15
#53000000000000
05
#53500000000000
b1 J
15
#54000000000000
05
#54500000000000
b10 J
b10 L
15
#55000000000000
05
#55500000000000
b11 J
15
#56000000000000
05
#56500000000000
1%
1H
b100 J
17
15
#57000000000000
05
#57500000000000
b101 J
b11100 L
07
15
#58000000000000
05
#58500000000000
b110 J
15
#59000000000000
05
#59500000000000
b111 J
15
#60000000000000
05
#60500000000000
b1000 J
15
#61000000000000
05
#61500000000000
b1 E
1;
b1001 J
15
#62000000000000
05
#62500000000000
0;
1&
b10 )
0(
b10 F
b1 E
b10011100101001101011111010110010100010101001100 6
b1 9
b1 .
b1 :
b1 I
b0 J
15
#63000000000000
05
#63500000000000
b1 J
15
#64000000000000
05
#64500000000000
b100 E
1;
b10 J
15
#65000000000000
05
#65500000000000
0;
0#
b10 $
1"
1'
b1 )
0&
b10 G
b1 F
b1010000010001010100010001011111010001110101001001001110 6
b100 9
b100 E
1!
1K
b100 .
b100 :
b100 I
b0 J
0%
0H
15
#66000000000000
05
#66500000000000
b1 J
15
#67000000000000
05
#67500000000000
b10 J
15
#68000000000000
05
#68500000000000
b11 J
15
#69000000000000
05
#69500000000000
b10 E
1;
b100 J
15
#70000000000000
05
#70500000000000
0+
b100 -
1,
1#
b1 $
0"
0;
b100 D
b1 G
b10 E
b10001010101011101011111010001110101001001001110 6
b10 9
b10 .
b10 :
b10 I
b0 J
15
#71000000000000
05
#71500000000000
b1 J
15
#72000000000000
05
#72500000000000
b10 J
15
#73000000000000
05
#73500000000000
b11 J
15
#74000000000000
05
#74500000000000
b100 J
15
#75000000000000
05
#75500000000000
b101 J
15
#76000000000000
05
#76500000000000
b110 J
15
#77000000000000
05
#77500000000000
b111 J
15
#78000000000000
05
#78500000000000
b1000 J
15
#79000000000000
05
#79500000000000
b11 E
1;
b1001 J
15
#80000000000000
05
#80500000000000
0;
1*
b10 -
0,
b10 D
b11 E
b10001010101011101011111010110010100010101001100 6
b11 9
b11 .
b11 :
b11 I
b0 J
15
#81000000000000
05
#81500000000000
b1 J
15
#82000000000000
05
#82500000000000
b0 E
1;
b10 J
15
#83000000000000
05
#83500000000000
0;
0'
b100 )
1(
1+
b1 -
0*
b100 F
b1 D
b0 E
b10011100101001101011111010001110101001001001110 6
b0 9
b0 .
b0 :
b0 I
b0 J
15
#84000000000000
05
#84500000000000
b1 J
15
#85000000000000
05
#85500000000000
b10 J
15
#86000000000000
05
#86500000000000
b11 J
b10 L
15
#87000000000000
05
#87500000000000
b100 J
15
#88000000000000
05
#88500000000000
1%
1H
b101 J
17
15
#89000000000000
05
#89500000000000
b110 J
07
15
#90000000000000
05
#90500000000000
b111 J
15
#91000000000000
05
#91500000000000
b1000 J
15
#92000000000000
05
#92500000000000
b1 E
1;
b1001 J
15
#93000000000000
05
#93500000000000
0;
1&
b10 )
0(
b10 F
b1 E
b10011100101001101011111010110010100010101001100 6
b1 9
b1 .
b1 :
b1 I
b0 J
15
#94000000000000
05
#94500000000000
b1 J
15
#95000000000000
05
#95500000000000
b100 E
1;
b10 J
15
#96000000000000
05
#96500000000000
0;
0#
b10 $
1"
1'
b1 )
0&
b10 G
b1 F
b100 E
b1010000010001010100010001011111010001110101001001001110 6
b100 9
0%
0H
b100 .
b100 :
b100 I
b0 J
15
#97000000000000
05
#97500000000000
b1 J
b1 L
15
#98000000000000
05
#98500000000000
1%
1H
b10 J
17
15
#99000000000000
05
#99500000000000
b11 J
b11011 L
07
15
#100000000000000
05
#100500000000000
b10 E
1;
b100 J
15
#101000000000000
05
#101500000000000
0+
b100 -
1,
1#
b1 $
0"
0;
b100 D
b1 G
b10 E
b10001010101011101011111010001110101001001001110 6
b10 9
b10 .
b10 :
b10 I
b0 J
15
#102000000000000
05
#102500000000000
b1 J
15
#103000000000000
05
#103500000000000
b10 J
15
#104000000000000
05
#104500000000000
b11 J
15
#105000000000000
05
#105500000000000
b100 J
15
#106000000000000
05
#106500000000000
b101 J
15
#107000000000000
05
#107500000000000
b110 J
15
#108000000000000
05
#108500000000000
b111 J
15
#109000000000000
05
#109500000000000
b1000 J
15
#110000000000000
05
#110500000000000
b11 E
1;
b1001 J
15
#111000000000000
05
#111500000000000
0;
1*
b10 -
0,
b10 D
b11 E
b10001010101011101011111010110010100010101001100 6
b11 9
b11 .
b11 :
b11 I
b0 J
15
#112000000000000
05
#112500000000000
b1 J
15
#113000000000000
05
#113500000000000
b100 E
1;
b10 J
15
#114000000000000
05
#114500000000000
0;
0#
b10 $
1"
1+
b1 -
0*
b10 G
b1 D
b100 E
b1010000010001010100010001011111010001110101001001001110 6
b100 9
0%
0H
0!
0K
b100 .
b100 :
b100 I
b0 J
15
#115000000000000
05
#115500000000000
b1 J
15
#116000000000000
05
#116500000000000
b10 J
15
#117000000000000
05
#117500000000000
b11 J
15
#118000000000000
05
#118500000000000
b0 E
1;
b100 J
15
#119000000000000
05
#119500000000000
0'
b100 )
1(
1#
b1 $
0"
0;
b100 F
b1 G
b0 E
b10011100101001101011111010001110101001001001110 6
b0 9
b0 .
b0 :
b0 I
b0 J
15
#120000000000000
05
#120500000000000
b1 J
15
#121000000000000
05
#121500000000000
b10 J
15
#122000000000000
05
#122500000000000
b11 J
15
#123000000000000
05
#123500000000000
b100 J
15
#124000000000000
05
#124500000000000
b101 J
15
#125000000000000
05
#125500000000000
b110 J
15
#126000000000000
05
#126500000000000
b111 J
15
